# Targetted decisions are possible vs _all_ other characters and shown are in the Diplomacy View, not the Intrigue View. The taker is in the FROM scope.
#
# filter = [self/court/home_court/vassals/sub_realm/realm/dynasty/all] ('self' MUST be set for decisions targetting only the taker, the other filter types can be set to lessen CPU load)
# ai_target_filter = [self/court/home_court/vassals/sub_realm/realm/dynasty/all] (which characters for which the AI evaluates the decision.)
#	court: all characters in the AI's host court, including prisoners, and characters currently away (wards, prisoners, etc)
#	home_court: all characters in the AI's home court, including prisoners, and characters currently away (wards, prisoners, etc)
#	vassals: direct vassal rulers of the AI's employer
#	sub_realm: all characters below the AI's employer
#	realm: all characters in the same top realm as the AI
#	dynasty: all members of the same dynasty
#	rivals: your rivals plus any character you have an opinion modifier with 'crime = yes' set (the same set of characters the 'is_foe' trigger evaluates)
#	all: all living characters (Avoid if possible. VERY CPU-HEAVY!)
#	

targetted_decisions = {

	commit_suicide = {
		filter = self
		ai_target_filter = self
		potential = {
			ai = no
			is_adult = yes

			OR = {
				trait = depressed
				AND = {
					trait = incapable
					has_dlc = "Reapers"
				}
			}
			immortal = no
		}
		allow = {
			custom_tooltip = {
				text = commit_suicide_allow_tooltip
				hidden_tooltip = {
					OR = {
						trait = depressed
						trait = incapable
					}
				}
			}
			prisoner = no
			custom_tooltip = {
				text = is_not_busy_trigger_tooltip
				hidden_tooltip = { NOT = { has_character_flag = do_not_disturb } }
			}
			custom_tooltip = {
				NOT = { has_character_flag = attempting_suicide }
				text = attempting_suicide_tooltip
			}
		}
		effect = {
			if = {
				limit = { has_dlc = "Reapers" }

				set_character_flag = attempting_suicide

				if = {
					limit = { NOT = { trait = incapable } }
					character_event = { id = RIP.30200 }
				}
				if = {
					limit = { trait = incapable } 
					character_event = { id = RIP.30210 }
				}
			}
			if = {
				limit = { NOT = { has_dlc = "Reapers" } }

				prestige = -200

				add_character_modifier = {
					modifier = suicide
					duration = -1
				}
				death = { death_reason = death_suicide }
			}
		}
		revoke_allowed = {
			always = no
		}
		ai_will_do = {
			factor = 0
		}
	}

	legitimize_bastard = {
		only_playable = yes
		filter = close_relatives
		ai_target_filter = close_relatives
	
		from_potential = {
			ai = no
			is_playable = yes
			has_children = yes
			has_polygamy = no
		}
		
		potential = {
			trait = bastard
			is_child_of = FROM
			is_liege_or_above = FROM
		}
		allow = {
			FROM = {
				piety = 20
			}
		}
		effect = {
			dynasty = FROM
			remove_trait = bastard
			add_trait = legit_bastard
			recalc_succession = yes
			FROM = { piety = -20 }
			if = {
				limit = {
					prisoner = yes
					host = { character = FROM }
				}
				imprison = no
			}
			
			if = {
				limit = { FROM = { is_female = no } }
				mother = {
					opinion = {
						who = FROM
						modifier = legitimized_child
						years = 10
					}
				}
			}
			FROM = {
				spouse = {
					if = {
						limit = {
							NOT = {
								any_child = {
									character = ROOT
								}	
							}
						}
						opinion = {
							who = ROOT_FROM
							modifier = legitimized_bastard
							years = 20
						}
					}
				}
				any_child = {
					limit = {
						NOT = { character = ROOT }
						dynasty = ROOT_FROM
						NOT = { trait = bastard }
					}
					opinion = {
						who = ROOT_FROM
						modifier = legitimized_bastard
						months = 12
					}
				}
			}
		}
		
		revoke_allowed = {
			always = no
		}
		ai_will_do = {
			factor = 0
		}
	}

	send_child_into_hiding = {
		only_rulers = yes
		is_high_prio = yes
		
		filter = dynasty
		ai_target_filter = dynasty
		ai_check_interval = 3
	
		from_potential = {
			is_ruler = yes
			has_regent = no
			has_children = yes
			OR = {
				ai = no
				OR = {
					trait = amateurish_plotter
					trait = flamboyant_schemer
					trait = intricate_webweaver
					trait = elusive_shadow
				}
			}
		}
		
		potential = {
			NOT = { is_inaccessible_trigger = yes }
			is_ruler = no
			liege = { character = FROM }
			NOT = { is_plot_target_of = FROM }
			OR = {
				has_character_modifier = suspected_murder_plot
				FROM = {
					any_known_plotter = {
						target = PREV
						OR = {
							has_plot = plot_kill_character
							has_plot = plot_kill_spouse
						}
					}
				}
			}
			NOT = { any_spouse = { character = FROM } }
			OR = {
				father = { character = FROM }
				mother = { character = FROM }
			}
			OR = {
				father = { ai = no }
				mother = { ai = no }
				is_female = no
				is_primary_heir = yes
				AND = {
					is_female = yes
					FROM = { has_law = true_cognatic_succession }
				}
			}
			NOT = { has_character_modifier = went_out_of_hiding_timer }
		}
		
		allow = {
			in_command = no
			prisoner = no
			custom_tooltip = {
				text = is_not_busy_trigger_tooltip
				hidden_tooltip = { NOT = { has_character_flag = do_not_disturb } }
			}
			has_job_title = no
			custom_tooltip = {
				text = is_target_of_murder_plot_tooltip
				hidden_tooltip = {
					OR = {
						has_character_modifier = suspected_murder_plot
						FROM = {
							any_known_plotter = {
								target = PREV
								OR = {
									has_plot = plot_kill_character
									has_plot = plot_kill_spouse
								}
							}
						}
					}
				}
			}
			custom_tooltip = {
				text = recently_went_out_of_hiding_tooltip
				hidden_tooltip = {
					NOT = { has_character_modifier = went_out_of_hiding_timer }
				}
			}
		}
		effect = {
			custom_tooltip = { text = go_into_hiding_info_tooltip }
			add_trait = in_hiding
			set_character_flag = do_not_disturb
			hidden_tooltip = {
				ROOT = {
					any_plotter = {
						target = ROOT
						limit = {
							NOT = { has_character_flag = murder_in_motion }
							NOT = { character = FROM }
							OR = {
								has_plot = plot_kill_character
								has_plot = plot_kill_spouse
							}
						}
						character_event = { id = CM.6004 }
						any_backed_character = { 
							character_event = { id = CM.6004 }
						}
					}
					any_plotter = {
						target = ROOT
						limit = {
							has_character_flag = murder_in_motion
							OR = {
								has_plot = plot_kill_character
								has_plot = plot_kill_spouse
							}
						}
						character_event = { id = CM.6180 }
						any_backed_character = { 
							character_event = { id = CM.6004 }
						}
					}
				}
				father = {
					if = {
						limit = {
							NOT = { character = FROM }
							NOT = { plot_target_char = { character = ROOT } }
							NOT = { any_backed_character = { plot_target_char = { character = ROOT } } }
							NOT = { is_rival = ROOT }
						}
						character_event = { id = CM.6004 }
					}
				}
				mother = {
					if = {
						limit = {
							NOT = { character = FROM }
							NOT = { plot_target_char = { character = ROOT } }
							NOT = { any_backed_character = { plot_target_char = { character = ROOT } } }
							NOT = { is_rival = ROOT }
						}
						character_event = { id = CM.6004 }
					}
				}
				any_spouse = {
					limit = {
						NOT = { plot_target_char = { character = ROOT } }
						NOT = { any_backed_character = { plot_target_char = { character = ROOT } } }
						NOT = { is_rival = ROOT }
					}
					character_event = { id = CM.6004 }
				}
				any_child = {
					limit = {
						NOT = { plot_target_char = { character = ROOT } }
						NOT = { any_backed_character = { plot_target_char = { character = ROOT } } }
						NOT = { is_rival = ROOT }
					}
					character_event = { id = CM.6004 }
				}
				any_lover = {
					limit = {
						NOT = { plot_target_char = { character = ROOT } }
						NOT = { any_backed_character = { plot_target_char = { character = ROOT } } }
						NOT = { is_rival = ROOT }
						NOT = { spouse = { character = ROOT } }
					}
					character_event = { id = CM.6004 }
				}
				any_sibling = {
					limit = {
						NOT = { plot_target_char = { character = ROOT } }
						NOT = { any_backed_character = { plot_target_char = { character = ROOT } } }
						NOT = { is_rival = ROOT }
						NOT = { is_lover = ROOT }
					}
					character_event = { id = CM.6004 }
				}
				any_rival = {
					limit = {
						NOT = { character = FROM }
						NOT = { plot_target_char = { character = ROOT } }
						NOT = { any_backed_character = { plot_target_char = { character = ROOT } } }
					}
					character_event = { id = CM.6004 }
				}
			}
		}
		
		revoke_allowed = {
			always = no
		}
		ai_will_do = {
			factor = 1
			modifier = {
				factor = 0.3
			}
			modifier = {
				factor = 0.5
				NOT = { 
					FROM = { 
						trait = in_hiding
					} 
				}
			}
			modifier = {
				factor = 0.5
				NOT = {
					reverse_opinion = {
						who = FROM
						value = -24
					}
				}
			}
			modifier = {
				factor = 1.5
				reverse_opinion = {
					who = FROM
					value = 25
				}
			}
			modifier = {
				factor = 5
				FROM = { trait = in_hiding }
			}
			modifier = {
				factor = 10
				FROM = { trait = paranoid }
			}					
		}
	}
	
	take_child_out_of_hiding = {
		only_rulers = yes
		is_high_prio = yes
		
		filter = dynasty
		ai_target_filter = dynasty
		ai_check_interval = 3
	
		from_potential = {
			is_ruler = yes
			has_regent = no
			has_children = yes
		}
		
		potential = {
			trait = in_hiding
			is_ruler = no
			liege = { character = FROM }
			is_child_of = FROM
			prisoner = no
			NOT = { any_spouse = { character = FROM } }
		}
		
		allow = {
			trait = in_hiding
		}
		effect = {
			custom_tooltip = { text = come_out_of_hiding_info_tooltip }
			remove_trait = in_hiding
			clr_character_flag = do_not_disturb
			add_character_modifier = {
				name = went_out_of_hiding_timer
				duration = 180
				hidden = yes
			}
			hidden_tooltip = {
				ROOT = {
					any_plotter = {
						target = ROOT
						limit = {
							NOT = { character = FROM }
							OR = {
								has_plot = plot_kill_character
								has_plot = plot_kill_spouse
							}
						}
						character_event = { id = CM.6005 }
					}
				}
				father = {
					if = {
						limit = {
							NOT = { character = FROM }
						}
						character_event = { id = CM.6005 }
					}
				}
				mother = {
					if = {
						limit = {
							NOT = { character = FROM }
						}
						character_event = { id = CM.6005 }
					}
				}
				any_sibling = {
					limit = {
						ROOT = {
							NOT = { is_plot_target_of = THIS }
						}
					}
					character_event = { id = CM.6005 }
				}
			}
		}
		
		revoke_allowed = {
			always = no
		}
		ai_will_do = {
			factor = 1
			modifier = {
				factor = 0.1
				FROM = { trait = paranoid }
			}
			modifier = {
				factor = 0
				OR = {
					has_character_modifier = suspected_murder_plot
					FROM = {
						any_known_plotter = {
							target = PREV
							OR = {
								has_plot = plot_kill_character
								has_plot = plot_kill_spouse
							}
						}
					}
				}
			}		
		}
	}
	
	go_into_hiding = {
		only_rulers = yes
		is_high_prio = yes
		
		filter = self
		ai_target_filter = self
		ai_check_interval = 3
		
		potential = {
			prisoner = no
			NOT = { is_inaccessible_trigger = yes }
			OR = {
				ai = no
				trait = amateurish_plotter
				trait = flamboyant_schemer
				trait = intricate_webweaver
				trait = elusive_shadow
			}
		}
		allow = {
			in_command = no
			custom_tooltip = {
				text = is_not_busy_trigger_tooltip
				hidden_tooltip = { NOT = { has_character_flag = do_not_disturb } }
			}
			has_job_title = no
			custom_tooltip = {
				text = is_target_of_murder_plot_tooltip
				hidden_tooltip = {
					OR = {
						has_character_modifier = suspected_murder_plot
						any_known_plotter = {
							target = ROOT
							OR = {
								has_plot = plot_kill_character
								has_plot = plot_kill_spouse
							}
						}
					}
				}
			}
			custom_tooltip = {
				text = recently_went_out_of_hiding_tooltip
				hidden_tooltip = {
					NOT = { has_character_modifier = went_out_of_hiding_timer }
				}
			}
		}
		effect = {
			set_character_flag = do_not_disturb
			custom_tooltip = { text = go_into_hiding_info_tooltip }
			add_trait = in_hiding
			hidden_tooltip = {                    # Notify player and close family and plotters
				ROOT = {
					any_plotter = {
						target = ROOT
						limit = {
							NOT = { has_character_flag = murder_in_motion }
							OR = {
								has_plot = plot_kill_character
								has_plot = plot_kill_spouse
							}
						}
						character_event = { id = CM.6000 }
						any_backed_character = { 
							character_event = { id = CM.6000 }
						}
					}
					any_plotter = {
						target = ROOT
						limit = {
							has_character_flag = murder_in_motion
							OR = {
								has_plot = plot_kill_character
								has_plot = plot_kill_spouse
							}
						}
						character_event = { id = CM.6180 }
						any_backed_character = { 
							character_event = { id = CM.6000 }
						}
					}
				}
				any_spouse = {
					limit = {
						NOT = { plot_target_char = { character = ROOT } }
						NOT = { any_backed_character = { plot_target_char = { character = ROOT } } }
						NOT = { is_rival = ROOT }
					}
					character_event = { id = CM.6000 }
				}
				any_child = {
					limit = {
						NOT = { plot_target_char = { character = ROOT } }
						NOT = { any_backed_character = { plot_target_char = { character = ROOT } } }
						NOT = { is_rival = ROOT }
					}
					character_event = { id = CM.6000 }
				}
				any_lover = {
					limit = {
						NOT = { plot_target_char = { character = ROOT } }
						NOT = { any_backed_character = { plot_target_char = { character = ROOT } } }
						NOT = { is_rival = ROOT }
						NOT = { spouse = { character = ROOT } }
					}
					character_event = { id = CM.6000 }
				}
				any_sibling = {
					limit = {
						NOT = { plot_target_char = { character = ROOT } }
						NOT = { any_backed_character = { plot_target_char = { character = ROOT } } }
						NOT = { is_rival = ROOT }
						NOT = { is_lover = ROOT }
					}
					character_event = { id = CM.6000 }
				}
				any_rival = {
					limit = {
						NOT = { plot_target_char = { character = ROOT } }
						NOT = { any_backed_character = { plot_target_char = { character = ROOT } } }
					}
					character_event = { id = CM.6000 }
				}
			}
		}
		revoke_allowed = {
			always = no
		}
		ai_will_do = {
			factor = 1 
			
			modifier = {
				factor = 0
				ROOT = {
					any_plotter = {
						target = ROOT
						is_primary_heir = yes
						ai = no
					}
				}
			}
			modifier = {
				factor = 0.3
			}
			modifier = {
				factor = 0.1
				age = 65
			}
			modifier = {
				factor = 0.1
				trait = brave
			}
			modifier = {
				factor = 2
				trait = depressed
			}
			modifier = {
				factor = 5
				trait = craven
			}
			modifier = {
				factor = 10
				trait = paranoid
			}
		}
	}
	
	come_out_of_hiding = {
		only_rulers = yes
		is_high_prio = yes
		
		filter = self
		ai_target_filter = self
		ai_check_interval = 3
		
		potential = {
			is_ruler = yes
			trait = in_hiding
			NOT = { has_character_flag = in_religious_seclusion }
		}
		allow = {
			OR = {
				OR = {
					age = 16
					NOT = {	trait = incapable }
				}
				regent = {
					NOT = { trait = deceitful }
					NOT = { trait = ambitious }
					NOT = { is_rival = ROOT }
				}
			}
		}
		effect = {
			add_character_modifier = {
				name = went_out_of_hiding_timer
				duration = 180
				hidden = yes
			}
			clr_character_flag = do_not_disturb
			custom_tooltip = { text = come_out_of_hiding_info_tooltip }
			remove_trait = in_hiding
			hidden_tooltip = {                    # Notify player and close family and plotters
				ROOT = {
					any_plotter = {
						target = ROOT
						limit = {
							OR = {
								has_plot = plot_kill_character
								has_plot = plot_kill_spouse
							}
						}
						character_event = { id = CM.6001 }
					}
				}
				any_spouse = {
					limit = {
						ROOT = {
							NOT = { is_plot_target_of = THIS }
						}
					}
					character_event = { id = CM.6001 }
				}
				any_child = {
					limit = {
						ROOT = {
							NOT = { is_plot_target_of = THIS }
						}
					}
					character_event = { id = CM.6001 }
				}
				any_lover = {
					limit = {
						ROOT = {
							NOT = { is_plot_target_of = THIS }
						}
						NOT = { spouse = { character = ROOT } }
					}
					character_event = { id = CM.6001 }
				}
				any_sibling = {
					limit = {
						ROOT = {
							NOT = { is_plot_target_of = THIS }
						}
					}
					character_event = { id = CM.6001 }
				}
				any_rival = {
					limit = {
						ROOT = {
							NOT = { is_plot_target_of = THIS }
						}
					}
					character_event = { id = CM.6001 }
				}
			}
		}
		revoke_allowed = {
			always = no
		}
		ai_will_do = {
			factor = 1
			modifier = {
				factor = 0.1
				trait = paranoid
			}
			modifier = {
				factor = 0
				NOT = {
					ROOT = {
						any_plotter = {
							target = ROOT
							is_primary_heir = yes
							ai = no
						}
					}
				}
				OR = {
					has_character_modifier = suspected_murder_plot
					any_known_plotter = {
						target = ROOT
						OR = {
							has_plot = plot_kill_character
							has_plot = plot_kill_spouse
						}
					}
				}
			}
		}
	}

	send_spouse_into_hiding = {
		only_rulers = yes
		is_high_prio = yes
		
		filter = spouse
		ai_target_filter = spouse
		ai_check_interval = 3
		
		from_potential = {
			is_ruler = yes
			has_regent = no
			OR = {
				ai = no
				OR = {
					trait = amateurish_plotter
					trait = flamboyant_schemer
					trait = intricate_webweaver
					trait = elusive_shadow
				}
			}
		}
		
		potential = {
			NOT = { is_inaccessible_trigger = yes }
			is_ruler = no
			is_married = FROM
			liege = { character = FROM }
			NAND = { 
				is_plot_target_of = FROM 
				FROM = {
					OR = {
						has_plot = plot_kill_character
						has_plot = plot_kill_spouse
					}
				}
			}
			NOT = { has_character_modifier = went_out_of_hiding_timer }
		}
		
		allow = {
			in_command = no
			prisoner = no
			custom_tooltip = {
				text = is_not_busy_trigger_tooltip
				hidden_tooltip = { NOT = { has_character_flag = do_not_disturb } }
			}
			has_job_title = no
			NOT = { is_ruler = yes }
			custom_tooltip = {
				text = is_target_of_murder_plot_tooltip
				hidden_tooltip = {
					OR = {
						has_character_modifier = suspected_murder_plot
						FROM = {
							any_known_plotter = {
								target = PREV
								OR = {
									has_plot = plot_kill_character
									has_plot = plot_kill_spouse
								}
							}
						}
					}
				}
			}
			custom_tooltip = {
				text = recently_went_out_of_hiding_tooltip
				hidden_tooltip = {
					NOT = { has_character_modifier = went_out_of_hiding_timer }
				}
			}
		}
		
		effect = {
			set_character_flag = do_not_disturb
			custom_tooltip = { text = go_into_hiding_info_tooltip }
			add_trait = in_hiding
			hidden_tooltip = {                    # Notify player and close family and plotters
				ROOT = {
					any_plotter = {
						target = ROOT
						limit = {
							NOT = { has_character_flag = murder_in_motion }
							OR = {
								has_plot = plot_kill_character
								has_plot = plot_kill_spouse
							}
						}
						character_event = { id = CM.6002 }
						any_backed_character = { 
							character_event = { id = CM.6002 }
						}
					}
					any_plotter = {
						target = ROOT
						limit = {
							has_character_flag = murder_in_motion
							OR = {
								has_plot = plot_kill_character
								has_plot = plot_kill_spouse
							}
						}
						character_event = { id = CM.6180 }
						any_backed_character = { 
							character_event = { id = CM.6002 }
						}
					}
				}
				any_child = {
					limit = {
						NOT = { plot_target_char = { character = ROOT } }
						NOT = { any_backed_character = { plot_target_char = { character = ROOT } } }
						NOT = { is_rival = ROOT }
					}
					character_event = { id = CM.6002 }
				}
				any_lover = {
					limit = {
						NOT = { plot_target_char = { character = ROOT } }
						NOT = { any_backed_character = { plot_target_char = { character = ROOT } } }
						NOT = { is_rival = ROOT }
						NOT = { spouse = { character = ROOT } }
					}
					character_event = { id = CM.6002 }
				}
				any_sibling = {
					limit = {
						NOT = { plot_target_char = { character = ROOT } }
						NOT = { any_backed_character = { plot_target_char = { character = ROOT } } }
						NOT = { is_rival = ROOT }
						NOT = { is_lover = ROOT }
					}
					character_event = { id = CM.6002 }
				}
				any_rival = {
					limit = {
						NOT = { spouse = { character = PREV } }
						NOT = { plot_target_char = { character = ROOT } }
						NOT = { any_backed_character = { plot_target_char = { character = ROOT } } }
					}
					character_event = { id = CM.6002 }
				}
			}
		}
		revoke_allowed = {
			always = no
		}
		ai_will_do = {
			factor = 1 
			
			modifier = {
				factor = 0.3
			}
			modifier = {
				factor = 0.1
				spouse = {
					age = 65
				}
			}
			modifier = {
				factor = 0.1
				spouse = { 
					trait = pregnant 
					NOT = {
						father_of_unborn = {
							character = ROOT
						}
					}
				}
			}
			modifier = {
				factor = 0.5
				NOT = { 
					FROM = { 
						trait = in_hiding
					} 
				}
			}
			modifier = {
				factor = 0.5
				NOT = {
					opinion = {
						who = spouse
						value = -24
					}
				}
			}
			modifier = {
				factor = 1.5
				opinion = {
					who = spouse
					value = 25
				}
			}
			modifier = {
				factor = 5
				trait = in_hiding
			}
			modifier = {
				factor = 10
				trait = paranoid
			}
			modifier = {
				factor = 10
				spouse = { 
					trait = pregnant 
					father_of_unborn = {
						character = ROOT
					}
				}
			}
		}
	}

	take_spouse_out_of_hiding = {
		only_rulers = yes
		is_high_prio = yes
		
		filter = spouse
		ai_target_filter = spouse
		ai_check_interval = 3
		
		from_potential = {
			is_ruler = yes
			has_regent = no
		}
		
		potential = {
			trait = in_hiding
			is_ruler = no
			is_married = FROM
			liege = { character = FROM }
			prisoner = no
		}
		
		allow = {
			trait = in_hiding
		}
		
		effect = {
			add_character_modifier = {
				name = went_out_of_hiding_timer
				duration = 180
				hidden = yes
			}
			clr_character_flag = do_not_disturb
			custom_tooltip = { text = come_out_of_hiding_info_tooltip }
			remove_trait = in_hiding
			hidden_tooltip = {                    # Notify player and close family and plotters
				ROOT = {
					any_plotter = {
						target = ROOT
						limit = {
							spouse = { NOT = { character = PREV } }
							OR = {
								has_plot = plot_kill_character
								has_plot = plot_kill_spouse
							}
						}
						character_event = { id = CM.6003 }
					}
				}
				any_child = {
					limit = {
						ROOT = {
							NOT = { is_plot_target_of = PREV }
						}
					}
					character_event = { id = CM.6003 }
				}
				any_lover = {
					limit = {
						ROOT = {
							NOT = { is_plot_target_of = PREV }
						}
						NOT = { spouse = { character = PREV } }
					}
					character_event = { id = CM.6003 }
				}
				any_sibling = {
					limit = {
						ROOT = {
							NOT = { is_plot_target_of = PREV }
						}
					}
					character_event = { id = CM.6003 }
				}
				any_rival = {
					limit = {
						spouse = { NOT = { character = PREV } }
						ROOT = {
							NOT = { is_plot_target_of = PREV }
						}
					}
					character_event = { id = CM.6003 }
				}
			}
		}
		revoke_allowed = {
			always = no
		}
		ai_will_do = {
			factor = 1
			modifier = {
				factor = 0.1
				trait = paranoid
			}
			modifier = {
				factor = 0
				spouse = {
					OR = {
						has_character_modifier = suspected_murder_plot
						FROM = {
							any_known_plotter = {
								target = PREV
								OR = {
									has_plot = plot_kill_character
									has_plot = plot_kill_spouse
								}
							}
						}
					}
				}
			}			
		}
	}
	
}
